4 0.9441964285714286 0.35714285714285715 0.10267857142857142 0.6785714285714286
9 0.5558035714285714 0.14285714285714285 0.16517857142857142 0.21428571428571427
9 0.08928571428571429 0.24553571428571427 0.17857142857142858 0.29464285714285715
