4 0.7991071428571429 0.25223214285714285 0.08928571428571429 0.45982142857142855
9 0.9486607142857143 0.22767857142857142 0.09375 0.21428571428571427
9 0.03794642857142857 0.23883928571428573 0.07589285714285714 0.16517857142857142
